<svg  width="24" height="24" viewBox="0 0 24 24" xmlns="http://www.w3.org/2000/svg">

  <g class="fr-artwork-decorative bank" id="artwork-decorative">
    <path d="M22 20v2H2v-2h20ZM6 12v7H4v-7h2Zm5 0v7H9v-7h2Zm4 0v7h-2v-7h2Zm5 0v7h-2v-7h2ZM12 2l10 5v4H2V7l10-5Zm0 4a1 1 0 1 0 0 2 1 1 0 0 0 0-2Z"/>
  </g>
</svg>
